<?xml version="1.0" encoding="UTF-8"?>
<svg width="77px" height="70px" viewBox="0 0 77 70" version="1.1" xmlns="http://www.w3.org/2000/svg" xmlns:xlink="http://www.w3.org/1999/xlink">
    <!-- Generator: Sketch 52.2 (67145) - http://www.bohemiancoding.com/sketch -->
    <title>Group 6</title>
    <desc>Created with Sketch.</desc>
    <g id="Desktop" stroke="none" stroke-width="1" fill="none" fill-rule="evenodd">
        <g id="sante_main" transform="translate(-687.000000, -2271.000000)" fill="#FFB5B7" fill-rule="nonzero">
            <g id="New-In" transform="translate(0.000000, 2200.000000)">
                <g id="Group" transform="translate(676.000000, 57.000000)">
                    <g id="Group-6">
                        <path d="M55.4617054,-1.81208248 C56.517905,-0.401341643 57.1012504,1.36627591 57.0216493,3.13868375 C56.8648232,6.19129699 56.1519776,9.23672479 54.7797498,11.9719812 C53.7722613,14.0701289 52.4000335,15.9754673 50.8008831,17.655662 C50.4634695,17.9778092 50.423075,18.5095315 50.0381383,18.7933563 C49.4441003,19.2172971 49.1470813,19.9202723 48.8227365,20.5525908 C48.6908601,21.0160515 48.3831484,21.3861015 48.1443451,21.7932763 C47.0988382,23.8650774 46.1923362,26.0219061 45.6707708,28.2925043 C44.892581,31.5726563 44.8700076,34.9749609 44.9769344,38.3269673 C46.0996663,36.2240294 47.6192155,34.352223 49.3644992,32.742685 C50.5311899,31.6061884 51.8440139,30.6169932 53.2732694,29.8397684 C54.5302538,29.1236198 55.9001055,28.6445907 57.2319387,28.0949047 C58.0041882,27.7859309 58.9558371,28.1284368 59.3692875,28.8505732 C59.8243206,29.5751048 59.6591781,30.6313641 58.9772224,31.1535058 C58.8275249,31.2828437 58.6314923,31.3726617 58.5411985,31.559483 C57.5158889,33.547454 56.7079972,35.6456017 55.6054626,37.5940527 C54.8213325,38.9988057 53.9671058,40.3676315 52.9928834,41.6478369 C51.1941363,44.0274142 48.6813555,45.7255725 46.1460012,47.2153531 C46.6841997,49.7506149 47.3756599,52.2475543 48.0255375,54.7540743 C48.7704612,57.6138783 49.4524168,60.4904484 50.0559595,63.3837844 C50.2460516,64.189751 50.3327812,65.0232617 50.5751487,65.8160549 C51.1953244,64.6819534 51.9188627,63.6053354 52.7659609,62.6305111 C54.1726429,61.0784566 55.8181282,59.7742998 57.4873751,58.5240337 C58.4033817,57.8450099 59.314636,57.1528128 60.282918,56.5516312 C61.4484206,55.8833855 63.0356902,56.9240764 63.0416306,58.2354187 C63.0083644,58.7970803 62.8634192,59.3455687 62.8052034,59.9048352 C62.7006527,60.8916353 62.5901617,61.8808305 62.3644272,62.8496669 C61.8583068,65.0232617 60.8555706,67.0375792 59.7577884,68.9632764 C58.5625839,71.0590289 57.0537273,72.9978994 55.1872599,74.5283975 C54.064528,75.4912461 52.6851717,76.0529078 51.3319531,76.599001 C51.252352,81.3198332 50.9268192,86.0478509 50.0666521,90.6932361 C49.7256743,92.4883978 49.2254943,94.2464348 48.8072915,96.0248305 C48.5874975,96.903849 47.6227797,97.4942524 46.7459796,97.290665 C45.8691795,97.133783 45.2074211,96.2320106 45.329793,95.3410164 C45.4414721,94.6200775 45.6660185,93.9218925 45.8323491,93.2129294 C46.3954972,91.1040036 46.798255,88.9567554 47.0822051,86.7927413 C46.0830332,86.3029339 45.1670266,85.6646276 44.205873,85.1053611 C42.5449427,84.126944 40.9065859,83.0515236 39.5949499,81.6156337 C38.2975709,80.131841 37.1653344,78.4169166 36.7316867,76.4612801 C36.3538785,74.8050368 36.3716997,73.0925076 36.4215988,71.4039299 C36.4465484,70.5776046 36.5760487,69.7273279 36.9835588,68.9968084 C37.4350277,68.2938332 38.3676674,67.8890535 39.1767472,68.1477293 C40.7735214,68.6255609 42.0625839,69.7428963 43.2946187,70.8243046 C44.8759479,72.2625897 46.4905433,73.6900965 47.7938627,75.399033 C47.8710876,71.9009226 47.4564491,68.4088002 46.7424154,64.9897296 C45.3428618,64.6520141 44.1036985,63.853233 42.9477005,63.0137344 C40.9125263,61.5251513 38.861907,60.0509391 36.9609854,58.388708 C35.7111294,57.3072997 34.6216636,55.9899695 34.0038641,54.4367175 C33.596354,53.3457286 33.3159681,52.209232 33.1508255,51.0559693 C33.0736006,50.3541916 33.0343941,49.5482251 33.5215052,48.9757852 C33.9111942,48.4428653 34.5658241,48.084791 35.2335228,48.182992 C38.4437043,48.8153105 41.3164721,50.5817305 43.8031153,52.6667048 C42.268121,47.114757 41.3426098,41.3676048 41.3699355,35.5953036 C39.2480317,35.0013075 37.3031513,33.7725977 35.892905,32.0624636 C34.1808874,30.1008393 32.6755951,27.869761 32.0304698,25.3069551 C31.424551,22.7944472 31.298615,20.1993068 31.0479309,17.6341057 C30.9493206,16.4784479 32.0233413,15.2940484 33.2114174,15.5275751 C34.2010847,15.7515212 35.0077884,16.430545 35.720634,17.1239397 C37.3328532,18.698748 38.9498247,20.2747539 40.4099701,21.9968637 C41.314096,23.0794696 42.0946619,24.2674619 42.7338468,25.5273085 C43.3183802,23.6734657 44.1001343,21.8890821 44.9769344,20.1585893 C45.2751415,19.6915359 44.9721821,19.1526281 44.9258471,18.656833 C44.4518048,15.5850586 44.5361582,12.3599948 45.5887936,9.412768 C46.736475,6.30746156 48.8868926,3.74944591 50.7105894,1.03933852 C51.2000767,0.338758389 51.5624399,-0.437268829 51.9248031,-1.20970333 C52.1873679,-1.77974801 52.596066,-2.33182911 53.2007967,-2.55817038 C54.0086884,-2.8707369 54.9579612,-2.4911063 55.4617054,-1.81208248 Z M49.4833068,9.38163111 C48.5459148,11.1827807 48.2156297,13.2330255 48.2001847,15.2485406 C48.4520568,14.9156153 48.7419474,14.6126294 49.0128287,14.2952726 C50.6167314,12.4486152 51.8214405,10.2582544 52.5841853,7.93017279 C53.0903057,6.41045283 53.2910905,4.81528577 53.4930634,3.23329201 C53.1948564,3.79615126 52.7932867,4.29194642 52.4344877,4.81408819 C51.3723477,6.28231253 50.3220885,7.76850046 49.4833068,9.38163111 Z M35.8418177,25.5021595 C36.4786265,27.1619955 37.5989822,28.5667484 38.7442875,29.8960543 C39.4226789,30.68765 40.2899744,31.2912267 41.2166737,31.7510947 C41.0931138,31.4002058 40.9814347,31.0445267 40.8935171,30.6840573 C40.5406585,29.2601431 39.9798866,27.8925149 39.2706052,26.6123095 C38.1811395,24.6207458 36.5546634,23.0136031 34.9780865,21.4172384 C35.1646144,22.7956448 35.3071835,24.2063856 35.8418177,25.5021595 Z M46.9420122,42.4837427 C47.9316795,41.7041228 48.9617414,40.9532446 49.7589405,39.9640494 C51.2749255,38.1269726 52.4416161,36.0300226 53.5085084,33.9067259 C52.048363,35.0156783 50.7307867,36.3162425 49.5866694,37.7545275 C48.4663137,39.1808368 47.6655505,40.8263019 46.9420122,42.4837427 Z M39.1102149,55.5097428 C40.9814347,57.1959254 43.0605677,58.6210371 45.0565355,60.146745 C43.5369862,56.6761788 40.4444243,54.1648685 37.1213756,52.5445524 C37.4385919,53.7229641 38.2155937,54.7133569 39.1102149,55.5097428 Z M55.1397368,65.3657675 C54.1690787,66.5489695 53.4479166,67.9189929 52.8847685,69.3405119 C52.4891392,70.3189289 52.1600421,71.330878 52.0162849,72.3811494 C53.7544402,71.3129144 55.0827092,69.6854128 56.1840557,67.9848594 C57.344806,66.0723355 58.4164505,64.0640058 58.9498967,61.8724475 C57.62638,62.9718193 56.2339549,64.0196956 55.1397368,65.3657675 Z M39.9466204,72.662579 C39.9632535,73.9260184 39.9882031,75.2241874 40.4313555,76.4229578 C40.8448059,77.4253263 41.4673578,78.3235059 42.1754511,79.1366579 C43.5120366,80.625241 45.3036553,81.561743 46.9788425,82.5988411 C46.9158745,82.2826818 46.8671634,81.965325 46.8327092,81.6455731 C46.6948923,79.9282536 45.6802754,78.4540414 44.6335804,77.15707 C43.2162057,75.5128024 41.5826012,74.0769125 39.9466204,72.662579 Z" id="Shape" transform="translate(47.041631, 47.330952) rotate(45.000000) translate(-47.041631, -47.330952) "></path>
                        <path d="M67.4771071,16.3708179 C68.4228157,15.9995703 69.5776256,16.6199131 69.80336,17.6138986 C70.0825579,18.5851301 69.3851573,19.6785142 68.3954899,19.8306059 C67.4854237,20.02102 66.5159536,19.3683428 66.3377422,18.451002 C66.131017,17.5947374 66.6525824,16.6522475 67.4771071,16.3708179 Z M60.4281116,33.7514863 C61.4058982,33.4700567 62.5013043,34.198181 62.6296165,35.2125252 C62.8197087,36.2244743 61.9844912,37.2639675 60.9639339,37.2843263 C60.0182254,37.3633661 59.1188518,36.5526092 59.0927141,35.5969461 C59.0238057,34.7622378 59.622596,33.9454931 60.4281116,33.7514863 Z M44.8420792,35.3380907 C45.6903655,35.0758222 46.6717163,35.5632344 46.9853684,36.3979427 C47.4855484,37.5823422 46.4447938,39.0876913 45.1676121,39.0182321 C44.3430873,39.02422 43.588659,38.3607646 43.4591587,37.5440199 C43.2880758,36.6027276 43.9450818,35.6087421 44.8420792,35.3380907 Z M43.6300959,56.4827195 C44.6696624,56.1234476 45.8791238,56.9557608 45.9242707,58.0611205 C46.0347618,59.0598963 45.1650901,60.016757 44.1694824,59.9963983 C43.2546639,60.0323255 42.4099418,59.2431249 42.3731114,58.3221914 C42.3018269,57.510237 42.8566584,56.7090607 43.6300959,56.4827195 Z M30.8179526,57.5031117 C31.7969272,57.1594083 32.9529252,57.8623836 33.1085632,58.8934938 C33.3117242,59.8599351 32.5774932,60.8850575 31.6032708,60.9952342 C30.6777596,61.1509187 29.7284868,60.4455483 29.5977985,59.5114414 C29.4385963,58.6563744 29.9922397,57.7498117 30.8179526,57.5031117 Z M29.6423388,73.3076279 C30.6426988,72.9794929 31.7927564,73.7339638 31.9079998,74.7842353 C32.0695781,75.7614547 31.2878241,76.7590329 30.3064733,76.8201091 C29.379774,76.932681 28.4637674,76.1865931 28.3746617,75.2512887 C28.2522898,74.4022095 28.8249425,73.5339692 29.6423388,73.3076279 Z" id="Combined-Shape"></path>
                    </g>
                </g>
            </g>
        </g>
    </g>
</svg>