<?xml version="1.0" encoding="UTF-8"?>
<svg width="8px" height="14px" viewBox="0 0 8 14" version="1.1" xmlns="http://www.w3.org/2000/svg" xmlns:xlink="http://www.w3.org/1999/xlink">
    <!-- Generator: Sketch 52.2 (67145) - http://www.bohemiancoding.com/sketch -->
    <title>Path 3</title>
    <desc>Created with Sketch.</desc>
    <g id="UI-Kit" stroke="none" stroke-width="1" fill="none" fill-rule="evenodd">
        <g id="Desktop-HD" transform="translate(-892.000000, -520.000000)" fill="#4E4F7E" fill-rule="nonzero">
            <polygon id="Path-3" points="892.132598 533.16086 892.867402 533.83914 899.180454 527 892.867402 520.16086 892.132598 520.83914 897.819546 527"></polygon>
        </g>
    </g>
</svg>