<?xml version="1.0" encoding="UTF-8"?>
<svg width="8px" height="14px" viewBox="0 0 8 14" version="1.1" xmlns="http://www.w3.org/2000/svg" xmlns:xlink="http://www.w3.org/1999/xlink">
    <!-- Generator: Sketch 52.2 (67145) - http://www.bohemiancoding.com/sketch -->
    <title>Path 2</title>
    <desc>Created with Sketch.</desc>
    <g id="UI-Kit" stroke="none" stroke-width="1" fill="none" fill-rule="evenodd">
        <g id="Desktop-HD" transform="translate(-828.000000, -520.000000)" fill="#FFFFFF" fill-rule="nonzero">
            <polygon id="Path-2" points="835.867402 520.83914 835.132598 520.16086 828.819546 527 835.132598 533.83914 835.867402 533.16086 830.180454 527"></polygon>
        </g>
    </g>
</svg>