<?xml version="1.0" encoding="UTF-8"?>
<svg width="119px" height="40px" viewBox="0 0 119 40" version="1.1" xmlns="http://www.w3.org/2000/svg" xmlns:xlink="http://www.w3.org/1999/xlink">
    <!-- Generator: Sketch 52.2 (67145) - http://www.bohemiancoding.com/sketch -->
    <title>Logo</title>
    <desc>Created with Sketch.</desc>
    <g id="Symbols" stroke="none" stroke-width="1" fill="none" fill-rule="evenodd">
        <g id="Footer" transform="translate(-601.000000, -2.000000)" fill="#4E4F7E">
            <g id="Logo">
                <path d="M708.008279,8.68544069 C708.329955,9.39389431 709.886526,9.28739012 709.674587,10.282059 C707.795634,11.1116582 707.986143,9.41632868 708.008279,8.68544069 Z M708.244708,6.28661672 C707.576631,6.72727487 707.602534,7.77082706 706.571335,7.81664039 C705.514233,6.65784642 707.270968,5.8908273 708.244708,6.28661672 Z M704.829436,11.2708241 C704.557212,12.2501432 705.761494,12.8254075 705.549085,13.7506479 C703.458664,14.490982 703.166659,11.5941151 704.829436,11.2708241 Z M688.147749,13.6720096 C688.877524,13.1496431 689.928975,13.5803829 689.49144,14.4975942 C689.152809,15.2065201 687.839496,15.8228748 687.2642,15.9189883 C688.327897,14.770585 687.572453,14.0843296 688.147749,13.6720096 Z M712.771246,21.879681 C712.747461,21.3122096 712.026164,20.895875 712.421311,20.2823542 C713.647258,20.1517626 713.443326,21.4817662 712.771246,21.879681 Z M714.394931,23.3700312 C714.353485,22.3895314 713.106815,21.6697425 713.790199,20.6087152 C715.908879,20.3829546 715.55659,22.6823589 714.394931,23.3700312 Z M702.606435,9.07367327 C701.701693,9.26684496 700.079185,9.31006063 699.904925,10.4705077 C699.378375,9.78047384 699.019492,9.15490929 698.635412,8.03484411 C698.613041,7.85914761 698.530856,7.43053317 698.440429,7.29616313 C698.365073,8.35341209 698.625051,9.10602599 698.886206,9.85816758 C698.014197,9.38562902 697.300435,9.04226516 696.192467,8.94922159 C695.194943,8.86609636 694.312572,8.93788633 693.539231,9.12350118 C693.372271,9.16364688 691.594341,8.58507642 691.437507,8.63537663 C691.210968,8.7081112 692.609998,9.41632868 692.404653,9.5086638 C690.567381,10.3344846 689.556905,11.8904849 689.255952,13.3175466 C689.247239,13.3569839 689.344024,13.2422144 689.383822,13.1546023 C690.071209,11.7022724 692.604346,9.50984455 694.899641,9.58328758 C699.629169,9.26141348 700.02102,13.1451562 699.978161,13.8654174 C698.718068,14.8837014 697.45515,15.779423 696.615167,16.9469545 C696.992182,15.229663 697.353655,13.543071 698.256042,12.584061 C696.804263,13.5784937 696.102982,15.4920269 695.804148,17.1448492 C695.530983,16.6786868 694.742807,15.2823247 694.308097,14.8154537 C694.365085,15.106392 694.490129,15.3345141 694.606931,15.5645254 C694.661093,15.6703211 694.936848,16.3251684 695.003491,16.4583577 C695.324932,17.138237 695.269592,17.7099591 695.590326,18.1536872 C695.234269,19.7810052 694.510381,20.0846956 694.711252,22.2211556 C693.933201,20.8375457 695.038814,19.00147 694.443973,17.5111198 C693.995606,16.700885 693.999138,16.1931599 693.23192,16.1383728 C692.152682,16.0635129 691.109944,16.5957977 690.855618,17.2142777 C690.22357,17.8433845 690.639676,18.8071176 691.231691,19.1868487 C691.352496,18.6174882 691.828651,17.8606236 691.353438,17.4414552 C691.338367,17.4268138 691.222978,17.3432163 691.080979,17.186648 C691.548892,16.6354711 692.965584,16.3365037 693.542528,16.6328734 C693.899527,16.8135291 694.343185,17.5486678 694.121591,19.2834346 C694.096865,19.4662156 693.817813,21.3861249 693.783667,21.5998418 C693.744576,21.8676372 694.13525,23.263527 695.890808,24.750335 C696.889274,25.5926864 698.00101,25.549943 699.487641,25.8097094 C698.443726,26.6388362 696.222374,25.3865264 694.890222,24.5496065 C694.785195,24.4825396 692.824527,22.974478 691.248881,22.5527119 C692.384637,21.6650195 690.752239,20.7069541 690.144681,20.2074943 C689.822299,20.9157117 689.881878,22.0591559 690.7772,22.4509307 C690.751061,22.44668 690.724451,22.4426654 690.698312,22.438887 C690.436921,22.4020474 689.747414,22.3621379 689.370635,22.4674613 C688.95029,22.5843562 688.5615,22.7343122 689.390415,22.648117 C689.49191,22.6389071 690.20685,22.5978168 691.239462,22.9534605 C692.785436,23.4831477 694.198596,24.967358 694.892577,25.3558267 C692.602698,24.9352414 689.016226,24.8544777 688.338258,22.8108252 C688.079693,22.0256224 688.229463,21.1981486 688.273028,21.0356765 C688.463537,20.3298206 688.86834,19.6069617 690.176472,19.4515742 C690.476954,19.4163877 690.923673,19.4612564 691.081685,19.5287957 C691.602112,19.8561013 691.17588,19.2954783 690.484725,19.21377 C688.73529,19.0085546 687.809825,20.5352721 687.789102,21.6489612 C687.705504,25.7629514 692.971236,25.4824038 696.343179,26.3915859 C697.478228,26.697874 697.584903,27.3477622 699.847466,26.5526411 C699.402866,28.4489353 702.852048,28.9335175 702.882897,30.5192729 C702.912098,32.0455181 700.252975,33.0009859 700.235549,34.8160441 C700.222597,36.1200711 701.228599,37.3473489 700.88361,38.4541896 C700.685565,39.0955763 699.950138,39.746409 699.147362,40.0529333 L688.984435,41.2776135 L715.331228,41.2776135 L705.729468,40.0529333 C705.088001,38.5925742 703.267213,36.8757549 703.17914,35.2432416 C703.116736,34.0823223 703.914332,32.9622571 704.581938,32.0067893 C704.991451,31.422079 705.785279,30.9162431 705.66047,30.1050637 C705.433696,28.5934598 700.684859,28.2793787 702.713111,26.3889883 C705.138866,27.4877998 705.580405,26.4036296 707.22599,26.1710207 C708.522112,25.9889481 709.38588,26.02626 710.44887,26.2567436 L710.5652,26.2822479 C710.585923,26.5764923 710.88146,26.9774771 711.295446,27.2299227 C711.824822,27.5491992 712.844953,27.5872195 713.28296,27.0983865 C712.960106,27.1763164 712.695419,26.9500835 712.445331,26.6445039 C712.319345,26.4902971 711.838951,26.0883678 711.699072,26.0404291 C710.9879,25.8094732 710.656098,25.9088929 710.580978,26.1372511 C710.56002,26.1294581 710.540003,26.1221374 710.521635,26.115289 C708.039363,25.1548621 705.771385,26.049639 705.806943,26.0569597 C705.666357,26.1041899 704.914917,26.2267524 704.688379,26.2361984 C703.892431,26.271385 703.592656,26.1639362 703.076232,25.9735983 C703.348691,25.8333245 704.672601,25.8368667 706.048789,25.1600574 C708.443695,23.9863859 709.593109,21.0196183 712.247286,20.2115088 C715.488298,19.2130615 717.84482,23.3943548 715.855659,25.2136637 C715.852126,25.1881594 715.847416,25.157932 715.841765,25.122037 C715.432723,24.1757792 714.620528,24.3618663 714.111639,23.8206077 C713.655971,24.4674259 713.94515,25.4221852 715.463101,25.3423661 C715.562477,25.3433107 715.638304,25.3470891 715.695763,25.3487422 C715.152022,25.7688552 714.314629,26.0914377 713.687762,25.6682548 C714.274361,26.5389443 717.184043,25.9280211 716.851534,22.5864815 C716.619344,20.2823542 714.278364,18.9665197 712.183234,19.4444897 C714.195002,18.4025906 716.220899,14.406676 713.430846,12.7514922 C713.984712,13.3305349 714.323107,13.97877 714.42366,14.8154537 C714.496897,15.4396014 714.428134,15.998099 714.263529,16.5013372 C713.704953,16.0594983 712.425079,15.9003324 711.757473,15.9685801 C711.981186,16.6867159 712.857669,17.6405306 713.6263,17.1611437 C712.911596,18.4935088 711.545063,19.3894665 710.654685,20.1061854 C710.779494,19.0635778 710.739225,18.5853716 710.346433,18.0594629 C710.289445,17.9801161 710.091871,17.7293235 709.891471,17.4610557 C709.635732,17.1235956 709.615951,16.7207217 709.686362,15.7092861 C709.750179,14.7554713 710.746761,14.0234026 711.187358,13.2474097 C711.03641,13.3376195 710.308755,14.0328486 709.931975,14.4012445 C709.225042,15.0083893 708.673531,16.343352 709.027704,17.2019978 C709.070798,17.3082659 709.562731,18.0641859 709.638087,18.1947775 C710.088338,18.9752573 710.146268,19.821387 709.785266,20.3676048 C709.353147,21.0120614 708.313706,22.014051 707.424506,22.8349126 C706.393307,23.7832958 705.319249,24.6117143 704.461604,24.6520961 C707.603947,22.164007 707.021587,20.0060573 706.976138,19.9401711 C708.933509,19.2912276 707.596647,15.2846862 709.48502,14.5689119 C706.678482,15.1073366 708.403898,18.426678 706.827545,19.2633617 C706.009462,17.7262535 706.642923,17.306849 705.573811,15.9225306 C705.440761,15.9770815 705.755843,18.5955261 705.985914,18.9511698 C706.49857,20.0551767 706.352803,20.5730563 706.068805,21.3839996 C705.861812,20.2462231 704.016769,17.7222389 704.463017,16.0066004 C704.761851,14.8598502 705.985678,14.851821 707.004867,14.347402 C709.117189,13.3019606 709.877342,11.8838726 709.840606,10.2709599 C708.827068,13.5610185 704.84851,14.0304871 703.847453,15.4584935 C703.104962,16.5176316 702.887372,17.8672358 704.639162,20.5201585 C704.984622,21.0380381 705.451122,21.7061098 705.357398,22.2546891 C705.168773,23.3232733 703.643286,24.0560505 702.893259,24.7328599 C702.687443,24.5651925 703.071287,24.2414292 702.984863,23.9068029 C704.211046,23.2987136 703.53661,21.5233288 704.666949,20.8330588 C703.501052,20.7948023 703.427815,22.5718401 702.487043,23.1657604 C702.683675,21.1287201 701.168314,18.5275146 702.572054,16.8005408 C701.445483,17.8370084 701.373659,19.8426406 701.669431,21.5807135 C701.234486,20.9112249 701.044683,20.5177969 700.780466,19.6912677 C699.811201,20.3702024 699.521316,22.6672452 701.586069,22.4190503 C701.620921,22.5331114 701.995817,23.8338322 701.414634,24.5590526 C700.913046,25.1810748 699.917641,24.6213965 699.767871,24.469079 C698.786124,23.4460719 698.730314,20.8878459 699.311496,19.5044721 C699.403101,19.2855599 700.289475,17.9947574 700.499295,17.7293235 C700.672378,17.5106475 701.769278,16.6574332 702.214349,15.7187321 C702.404152,15.3184558 702.565225,14.4293465 702.22942,13.8840734 C702.005236,15.6646535 700.431945,16.8801237 699.529087,18.1069293 C699.583249,17.3302279 700.029262,16.8092784 700.169612,16.1312883 C700.309021,15.4360591 700.58878,14.6482587 700.840045,14.127073 C701.08189,13.6325723 701.488341,13.1583807 701.882547,12.9217572 C703.996281,10.9761074 708.334429,8.44031573 704.702508,5.25180213 C703.392963,3.20862188 702.767508,5.05768584 701.342339,4.76533064 C702.087657,5.26053972 703.059042,5.96757644 704.345038,5.35877863 C704.675662,5.65255073 704.893724,5.93711293 705.024184,6.30952339 C705.537546,7.77366088 705.042081,8.99385416 704.00311,10.085345 C702.950011,11.1917135 701.282525,12.6726177 700.795773,12.9543461 C700.69522,12.4603177 700.821441,11.8316832 700.225894,10.9104574 C701.287235,11.3319873 702.491753,9.79936593 702.606435,9.07367327 Z M698.287127,3.72390382 C699.826978,4.14968444 699.510954,7.14408176 698.24262,6.7518346 C696.933781,6.34659913 697.860188,5.17387223 698.13877,4.73510329 C698.377318,4.35796981 698.518846,4.00161764 698.287127,3.72390382 Z M711.802215,8.26225772 C710.828711,7.8664683 709.071975,8.63372357 710.129313,9.7922814 C711.160512,9.74670421 711.134373,8.70291588 711.802215,8.26225772 Z M707.367047,10.2149921 C707.365163,10.8946352 706.077047,11.1442471 705.939994,11.8496307 C705.807414,12.5146325 706.18961,13.1902611 706.789161,13.2027771 C707.636915,12.759049 707.842731,10.9938187 707.367047,10.2149921 Z M715.712953,10.8502388 C715.226436,11.5194913 715.676688,12.5505275 714.66739,12.9517484 C713.142609,12.1611142 714.581437,10.791201 715.712953,10.8502388 Z M705.008877,8.34892522 C705.008877,8.35105058 705.009819,8.35506515 705.012174,8.36403889 C704.365054,8.73975547 703.910093,8.08349126 703.377185,7.98548851 C702.998286,7.9162962 702.701808,8.09813263 702.287585,8.07097525 C702.729595,7.60245125 702.836977,6.89210842 703.658122,6.79434182 C704.536489,6.68760147 705.224819,7.4274632 705.012174,8.36427505 C705.012174,8.36427505 705.009819,8.35459285 705.008877,8.34892522 Z M691.579035,11.3355295 C693.002556,11.2396521 693.922605,12.2867466 692.183766,13.3829605 C691.884697,12.8615386 692.0964,11.7041616 691.579035,11.3355295 Z M710.26048,25.1354977 C710.921493,24.7071194 711.450397,23.6090163 711.022046,22.8982011 C710.219034,24.2371785 707.821773,23.5813866 708.315825,25.1517921 C708.721335,25.790345 709.701433,25.4961006 710.26048,25.1354977 Z M692.952868,10.160205 C692.949806,10.1599688 692.94439,10.1590242 692.931438,10.1585519 C692.500968,10.9534369 693.456811,11.3988181 693.657681,12.0012398 C693.79968,12.4333965 693.588684,12.7973055 693.676049,13.2774009 C694.260764,12.7042619 695.221553,12.4886559 695.252166,11.5272843 C695.283721,10.4969566 694.186115,9.7927537 692.931438,10.1580796 C692.931438,10.1580796 692.94651,10.1590242 692.952868,10.160205 Z M716.613928,27.6195722 C716.316978,27.0374595 715.341354,26.7876115 715.605571,25.8907092 C716.7239,25.6075639 717.085609,26.9675587 716.613928,27.6195722 Z M690.992436,28.1891689 C691.475891,27.4351381 691.178235,25.7634237 690.543126,25.5435669 C689.117721,26.0286215 690.467299,27.7100181 690.992436,28.1891689 Z M716.508665,24.8953319 C716.910877,26.3112945 719.062289,25.2379873 719.651479,24.7304983 C718.63747,24.7397082 718.229842,24.097377 717.410346,24.2315108 C716.826337,24.3318751 716.528446,24.8988741 716.508665,24.8953319 Z M684.749196,21.4990052 C685.376063,21.6562819 686.796287,21.0068661 687.302114,22.0735611 C686.914502,23.518098 685.018122,22.6211958 684.749196,21.4990052 Z M720,22.3543449 C719.715296,23.0058861 718.08172,24.0737618 717.052405,23.4304859 C717.08867,21.55025 718.92971,22.2896395 720,22.3543449 Z M684.90815,19.3115366 C685.810302,19.6112125 687.432103,18.6595231 688.104419,19.512029 C688.104419,19.512029 688.025295,19.6036556 687.985498,19.6504136 C688.005279,19.6256177 688.041309,19.5880696 688.104419,19.512029 C688.013521,19.6149909 687.548905,20.4415201 687.063801,20.5510943 C686.067925,20.774021 685.229354,20.1886022 684.90815,19.3115366 Z M716.977991,22.1016631 C718.326156,22.1462957 718.636764,20.8772191 719.21465,20.1956867 C717.790422,20.0341593 716.282833,20.9631781 716.977991,22.1016631 Z M686.847152,16.8881529 C686.241008,18.1860399 687.719633,19.3207465 688.912376,19.2031432 C689.788154,17.942568 687.427629,17.6242362 686.847152,16.8881529 Z M715.051234,16.0391893 L715.051469,16.0540668 C714.986475,17.0905345 715.918534,17.716099 717.198878,17.7619124 C716.492416,17.5269419 717.058057,16.4600107 716.460155,16.0672913 C716.154021,15.8686881 715.601332,15.8065804 715.051234,16.0391893 Z M689.636971,15.229663 C689.60259,15.8134287 689.690426,16.1175915 690.0884,16.4694568 C690.569736,16.8829576 691.486959,16.5653342 691.786028,16.4059321 C691.731159,15.49675 690.203318,15.6424553 689.636971,15.229663 Z M712.965287,14.8005762 C713.406826,14.6905297 713.71084,14.2531777 713.71084,14.063076 C713.71084,13.9797146 713.732976,13.7048346 713.682817,13.5598378 C712.637018,13.3090452 712.249877,14.3122155 711.526695,14.6329089 C711.912659,14.7734188 712.057248,14.9578529 712.965287,14.8005762 Z M718.029913,14.6791945 C717.314503,14.6499117 717.104212,13.4901732 716.366902,13.3390364 C715.671978,13.1940395 714.944794,13.507176 714.907351,14.0415862 C715.339706,14.8156899 717.190401,15.0716778 718.029913,14.6791945 Z M696.934252,12.0838927 C696.514849,11.5560948 694.84807,10.802064 695.937905,9.80786738 C696.855128,9.80786738 697.16762,11.1817951 696.934252,12.0838927 Z M712.02899,9.99773295 C711.019455,10.8977052 711.167106,13.2561473 713.231859,12.6412096 C713.682817,11.4573836 712.28308,10.9685506 712.02899,9.99773295 Z M690.732458,8.4632224 C691.259007,9.77055549 689.27644,9.97388168 688.535596,9.890048 C688.991264,9.26826187 689.771198,7.88488809 690.732458,8.4632224 Z M686.671243,11.6741704 C687.486971,11.9410212 688.44046,12.6865506 689.643329,11.3022322 C689.103121,10.3000065 687.54443,11.0415213 686.671243,11.6741704 Z M701.516835,6.76175295 C700.713117,6.74758388 699.305845,6.45003336 699.019257,7.54955338 C699.698167,8.52037099 701.242493,7.37291228 701.516835,6.76175295 Z M694.399702,6.2233282 C693.387342,6.70224285 693.42973,8.74447849 694.785901,8.57704728 C695.486711,7.69148025 694.530868,6.98963887 694.399702,6.2233282 Z M698.214832,7.66266981 C698.231081,7.56844548 698.042455,7.40479269 697.895276,7.15754237 C697.436782,6.32085865 696.282894,6.73483171 695.773535,6.24788792 C695.841591,6.80378787 696.009964,7.26121275 696.352598,7.55994403 C696.435019,7.631734 696.767291,7.81262582 697.064476,7.85017387 C697.724076,7.93495215 697.855949,7.75972795 698.214832,7.66266981 Z M690.816527,5.74039898 C689.32024,6.03157342 689.58328,8.63821045 691.464117,7.97226404 C691.654862,7.13959488 690.571384,6.62195144 690.816527,5.74039898 Z M704.920805,5.04635058 C706.247305,4.83263374 706.63633,3.1741438 706.557206,2 C705.634802,2.56581829 703.647996,3.50877007 704.920805,5.04635058 Z M710.252238,27.1503398 C709.993437,26.4841572 709.046778,26.3556909 708.910431,27.1789141 C708.805168,27.8148693 709.427797,28.7854507 709.785266,29.0886689 C709.594522,27.847222 710.45617,27.6753039 710.252238,27.1503398 Z M688.422327,24.2825195 C688.420208,24.2997585 688.420443,24.3066069 688.420208,24.3217206 C688.420208,24.3007031 688.422798,24.2825195 688.422327,24.2825195 C689.747179,25.3995147 688.996445,27.3479983 688.069332,28.1856267 C687.730701,27.0948442 686.560329,24.6823235 688.422327,24.2825195 Z M684.749196,24.7848131 C686.093828,24.9978215 687.099359,24.7786732 687.997979,23.7903804 C687.125969,22.1566863 685.145756,23.9018438 684.749196,24.7848131 Z M698.814854,24.7193992 C696.770353,24.4771081 695.346596,23.7407886 695.478234,21.4961714 C695.729028,19.6641103 696.365786,18.6713307 696.615167,18.2745966 C697.268173,17.2310444 699.209766,15.8660905 699.822975,15.1389809 C699.668024,15.8729388 698.715478,17.8509414 698.66791,18.080008 C698.414761,19.2912276 698.121344,20.4117651 698.06153,21.7786082 C698.047165,22.1566863 698.214832,23.5310864 698.732198,24.5236299 C698.800254,24.6563469 698.782121,24.6117143 698.814854,24.7193992 Z M678.323676,38.840533 L676.538918,40.9937597 C676.372428,41.1916544 676.182861,41.2913102 675.969039,41.2913102 C675.67256,41.2913102 675.524203,41.1125438 675.524203,40.7564277 L675.524203,37.8871906 C675.524203,37.4628268 675.688338,37.2500546 676.016842,37.2500546 C676.344876,37.2500546 676.508775,37.4628268 676.508775,37.8881352 L676.508775,39.7376714 L678.329799,37.5421737 C678.491814,37.3471128 678.666075,37.2500546 678.85211,37.2500546 C679.156124,37.2500546 679.308484,37.4517277 679.308484,37.8548379 L679.308484,40.6534658 C679.308484,41.078538 679.14435,41.2913102 678.816316,41.2913102 C678.488046,41.2913102 678.323676,41.0792464 678.323676,40.6544104 L678.323676,38.840533 Z M673.794549,38.840533 L672.009319,40.9937597 C671.843065,41.1916544 671.653733,41.2913102 671.439911,41.2913102 C671.143432,41.2913102 670.99484,41.1125438 670.99484,40.7564277 L670.99484,37.8871906 C670.99484,37.4628268 671.15921,37.2500546 671.487244,37.2500546 C671.815513,37.2500546 671.979648,37.4628268 671.979648,37.8881352 L671.979648,39.7376714 L673.800436,37.5421737 C673.962216,37.3471128 674.136476,37.2500546 674.322276,37.2500546 C674.626996,37.2500546 674.779357,37.4517277 674.779357,37.8548379 L674.779357,40.6534658 C674.779357,41.078538 674.614986,41.2913102 674.286953,41.2913102 C673.958683,41.2913102 673.794549,41.0792464 673.794549,40.6544104 L673.794549,38.840533 Z M667.36127,40.4957168 L669.08127,40.4957168 L669.08127,37.8881352 C669.08127,37.4628268 669.24564,37.2500546 669.573674,37.2500546 C669.901708,37.2500546 670.066078,37.4628268 670.066078,37.8881352 L670.066078,40.4957168 C670.406121,40.4957168 670.575672,40.6239469 670.575672,40.8796987 L670.575672,41.5992514 C670.575672,41.8663384 670.429906,42 670.137195,42 C670.002732,42 669.896056,41.9636327 669.816697,41.8916066 C669.737573,41.8193443 669.698482,41.72205 669.698482,41.5992514 L669.698482,41.2476223 L667.053253,41.2476223 C666.602295,41.2476223 666.376933,41.0350862 666.376933,40.6095417 L666.376933,37.8881352 C666.376933,37.4628268 666.540832,37.2500546 666.868866,37.2500546 C667.197136,37.2500546 667.36127,37.4628268 667.36127,37.8881352 L667.36127,40.4957168 Z M664.065625,38.2232337 L663.573457,39.608969 L664.552142,39.608969 L664.0774,38.2232337 L664.065625,38.2232337 Z M664.824836,37.762975 L665.91632,40.5993872 C665.963889,40.7219497 665.987673,40.8159378 665.987673,40.8808794 C665.987673,41.0024973 665.939869,41.1014447 665.844496,41.1772492 C665.750066,41.2532899 665.635619,41.2913102 665.50092,41.2913102 C665.25201,41.2913102 665.07775,41.1493834 664.979081,40.8664742 L664.818949,40.403854 L663.288517,40.403854 L663.110724,40.8985908 C663.015823,41.1600102 662.857575,41.2913102 662.636453,41.2913102 C662.497986,41.2913102 662.385423,41.2523453 662.298528,41.1746515 C662.211398,41.0969578 662.167833,40.9954128 662.167833,40.8702526 C662.167833,40.7762644 662.183375,40.6900693 662.215166,40.6102501 L663.341737,37.8276805 C663.50022,37.4392117 663.75125,37.2446231 664.095297,37.2446231 C664.44735,37.2446231 664.690373,37.4174858 664.824836,37.762975 Z M659.815079,38.0669016 L659.815079,38.840533 L660.242253,38.840533 C660.435824,38.840533 660.572642,38.8188071 660.651294,38.7755914 C660.761974,38.7179705 660.817549,38.6095771 660.817549,38.4508835 C660.817549,38.1946594 660.625862,38.0669016 660.242253,38.0669016 L659.815079,38.0669016 Z M659.815079,39.5435551 L659.815079,40.4744632 L660.307718,40.4744632 C660.516596,40.4744632 660.672959,40.449195 660.775867,40.3984225 C660.910331,40.3299387 660.977444,40.2076123 660.977444,40.0307351 C660.977444,39.8250474 660.91245,39.6878435 660.781754,39.6193597 C660.686853,39.5688233 660.522718,39.5435551 660.289586,39.5435551 L659.815079,39.5435551 Z M659.500939,41.2476223 C659.251793,41.2476223 659.077533,41.2088935 658.978863,41.1314359 C658.879959,41.0539783 658.830506,40.9030776 658.830506,40.6796786 L658.830506,37.931587 C658.830506,37.697325 658.879959,37.5329638 658.978863,37.4392117 C659.077533,37.3456958 659.256032,37.2982295 659.513184,37.2982295 L660.319257,37.2982295 C660.710873,37.2982295 661.042674,37.3728532 661.31584,37.5204477 C661.647641,37.697325 661.813895,37.9514237 661.813895,38.28298 C661.813895,38.7127752 661.644109,39.0022966 661.304065,39.1541418 L661.304065,39.1704362 C661.556743,39.2424623 661.73901,39.3482581 661.849454,39.487115 C661.960133,39.6257358 662.015473,39.8160736 662.015473,40.0578925 C662.015473,40.4579326 661.863112,40.7625677 661.558627,40.9720338 C661.289701,41.1555233 660.927992,41.2476223 660.473973,41.2476223 L659.500939,41.2476223 Z M655.434308,40.0911898 C655.615869,40.3389124 655.876789,40.4633641 656.217068,40.4633641 C656.556876,40.4633641 656.819916,40.3405655 657.005715,40.0963851 C657.167966,39.8800706 657.249209,39.6106221 657.249209,39.2866226 C657.249209,38.9524687 657.171734,38.6764079 657.01749,38.4608019 C656.832161,38.2057585 656.565354,38.0777646 656.217068,38.0777646 C655.869489,38.0777646 655.60433,38.2057585 655.422063,38.4608019 C655.268054,38.6764079 655.190814,38.9524687 655.190814,39.2866226 C655.190814,39.6106221 655.271822,39.8781814 655.434308,40.0911898 Z M654.692523,37.8331119 C655.068125,37.4444071 655.576543,37.2500546 656.217068,37.2500546 C656.861597,37.2500546 657.371662,37.442754 657.747265,37.8276805 C658.111093,38.1993825 658.293124,38.6818394 658.293124,39.2755235 C658.293124,39.8663738 658.111093,40.3471777 657.747265,40.7188797 C657.367895,41.0997916 656.857829,41.2913102 656.217068,41.2913102 C655.576543,41.2913102 655.068125,41.0979024 654.692523,40.7127398 C654.328931,40.3452885 654.14737,39.8663738 654.14737,39.2755235 C654.14737,38.6853816 654.328931,38.2048139 654.692523,37.8331119 Z M650.810044,39.6467532 L650.810044,40.6522851 C650.810044,41.078538 650.645909,41.2913102 650.31764,41.2913102 C649.989606,41.2913102 649.825471,41.078538 649.825471,40.6534658 L649.825471,37.8871906 C649.825471,37.4628268 649.989606,37.2500546 650.31764,37.2500546 C650.645909,37.2500546 650.810044,37.4628268 650.810044,37.8881352 L650.810044,38.8188071 L652.624709,38.8188071 L652.624709,37.8881352 C652.624709,37.4628268 652.788844,37.2500546 653.117348,37.2500546 C653.445618,37.2500546 653.609752,37.4628268 653.609752,37.8871906 L653.609752,40.6534658 C653.609752,41.078538 653.445618,41.2913102 653.117348,41.2913102 C652.788844,41.2913102 652.624709,41.078538 652.624709,40.6522851 L652.624709,39.6467532 L650.810044,39.6467532 Z M646.280916,39.6467532 L646.280916,40.6522851 C646.280916,41.078538 646.116546,41.2913102 645.788276,41.2913102 C645.460007,41.2913102 645.296343,41.078538 645.296343,40.6534658 L645.296343,37.8871906 C645.296343,37.4628268 645.460007,37.2500546 645.788276,37.2500546 C646.116546,37.2500546 646.280916,37.4628268 646.280916,37.8881352 L646.280916,38.8188071 L648.095581,38.8188071 L648.095581,37.8881352 C648.095581,37.4628268 648.259716,37.2500546 648.58775,37.2500546 C648.916019,37.2500546 649.080154,37.4628268 649.080154,37.8871906 L649.080154,40.6534658 C649.080154,41.078538 648.916019,41.2913102 648.58775,41.2913102 C648.259716,41.2913102 648.095581,41.078538 648.095581,40.6522851 L648.095581,39.6467532 L646.280916,39.6467532 Z M643.566453,38.840533 L641.781224,40.9937597 C641.615206,41.1916544 641.425403,41.2913102 641.211816,41.2913102 C640.915102,41.2913102 640.766745,41.1125438 640.766745,40.7564277 L640.766745,37.8871906 C640.766745,37.4628268 640.930879,37.2500546 641.259149,37.2500546 C641.587418,37.2500546 641.751317,37.4628268 641.751317,37.8881352 L641.751317,39.7376714 L643.572341,37.5421737 C643.734356,37.3471128 643.908617,37.2500546 644.094416,37.2500546 C644.398666,37.2500546 644.551261,37.4517277 644.551261,37.8548379 L644.551261,40.6534658 C644.551261,41.078538 644.387127,41.2913102 644.058857,41.2913102 C643.730588,41.2913102 643.566453,41.0792464 643.566453,40.6544104 L643.566453,38.840533 Z M635.901577,38.840533 L634.116347,40.9937597 C633.950093,41.1916544 633.760526,41.2913102 633.546939,41.2913102 C633.25046,41.2913102 633.102103,41.1125438 633.102103,40.7564277 L633.102103,37.8871906 C633.102103,37.4628268 633.266238,37.2500546 633.594272,37.2500546 C633.922541,37.2500546 634.086676,37.4628268 634.086676,37.8881352 L634.086676,39.7376714 L635.907699,37.5421737 C636.069714,37.3471128 636.24374,37.2500546 636.429775,37.2500546 C636.73426,37.2500546 636.886385,37.4517277 636.886385,37.8548379 L636.886385,40.6534658 C636.886385,41.078538 636.72225,41.2913102 636.394216,41.2913102 C636.065947,41.2913102 635.901577,41.0792464 635.901577,40.6544104 L635.901577,38.840533 Z M627.697434,38.2232337 L627.205265,39.608969 L628.183479,39.608969 L627.708972,38.2232337 L627.697434,38.2232337 Z M628.456174,37.762975 L629.547658,40.5993872 C629.595226,40.7219497 629.618775,40.8159378 629.618775,40.8808794 C629.618775,41.0024973 629.571442,41.1014447 629.476305,41.1772492 C629.381403,41.2532899 629.267192,41.2913102 629.132729,41.2913102 C628.883348,41.2913102 628.709558,41.1493834 628.610653,40.8664742 L628.450287,40.403854 L626.92009,40.403854 L626.742297,40.8985908 C626.647396,41.1600102 626.489148,41.2913102 626.26779,41.2913102 C626.129559,41.2913102 626.016525,41.2523453 625.92963,41.1746515 C625.842971,41.0969578 625.79917,40.9954128 625.79917,40.8702526 C625.79917,40.7762644 625.814948,40.6900693 625.846974,40.6102501 L626.973546,37.8276805 C627.131558,37.4392117 627.383058,37.2446231 627.726634,37.2446231 C628.079159,37.2446231 628.321946,37.4174858 628.456174,37.762975 Z M624.217873,40.4957168 L624.217873,38.094059 L623.173958,38.094059 C623.02772,38.094059 622.954719,38.165849 622.954719,38.3103735 L622.954719,39.7492428 C622.954719,40.0229421 622.910918,40.2723178 622.824023,40.4957168 L624.217873,40.4957168 Z M624.846624,41.2476223 L622.331855,41.2476223 L622.331855,41.5992514 C622.331855,41.72205 622.292528,41.8193443 622.212934,41.8916066 C622.134281,41.9636327 622.02525,42 621.887019,42 C621.752556,42 621.646587,41.9636327 621.569582,41.8916066 C621.492343,41.8193443 621.453723,41.72205 621.453723,41.5992514 L621.453723,40.8796987 C621.453723,40.6239469 621.582299,40.4957168 621.839451,40.4957168 C621.914571,40.4957168 621.972972,40.439749 622.014418,40.3280495 C622.055628,40.2163499 622.076822,40.0229421 622.076822,39.7492428 L622.076822,38.2995106 C622.076822,37.9929863 622.171488,37.7492783 622.361526,37.5690949 C622.550858,37.3886754 622.814133,37.2982295 623.149938,37.2982295 L624.662473,37.2982295 C624.872057,37.2982295 625.020649,37.3598649 625.107544,37.4828997 C625.174658,37.580194 625.208568,37.7310946 625.208568,37.9370185 L625.208568,40.4957168 C625.55238,40.4957168 625.724756,40.6239469 625.724756,40.8796987 L625.724756,41.5992514 C625.724756,41.8663384 625.578048,42 625.285337,42 C625.150874,42 625.044669,41.9636327 624.965074,41.8916066 C624.886657,41.8193443 624.846624,41.72205 624.846624,41.5992514 L624.846624,41.2476223 Z M618.490821,40.0911898 C618.672382,40.3389124 618.933302,40.4633641 619.273816,40.4633641 C619.61386,40.4633641 619.876664,40.3405655 620.061993,40.0963851 C620.224479,39.8800706 620.305722,39.6106221 620.305722,39.2866226 C620.305722,38.9524687 620.228247,38.6764079 620.074473,38.4608019 C619.888438,38.2057585 619.621631,38.0777646 619.273816,38.0777646 C618.925531,38.0777646 618.660843,38.2057585 618.478811,38.4608019 C618.324567,38.6764079 618.247327,38.9524687 618.247327,39.2866226 C618.247327,39.6106221 618.328335,39.8781814 618.490821,40.0911898 Z M617.749272,37.8331119 C618.124638,37.4444071 618.632584,37.2500546 619.273816,37.2500546 C619.91811,37.2500546 620.428175,37.442754 620.804013,37.8276805 C621.167841,38.1993825 621.349402,38.6818394 621.349402,39.2755235 C621.349402,39.8663738 621.167841,40.3471777 620.804013,40.7188797 C620.424172,41.0997916 619.914342,41.2913102 619.273816,41.2913102 C618.632584,41.2913102 618.124638,41.0979024 617.749272,40.7127398 C617.385679,40.3452885 617.203883,39.8663738 617.203883,39.2755235 C617.203883,38.6853816 617.385679,38.2048139 617.749272,37.8331119 Z M613.747635,40.6534658 L613.747635,37.9304062 C613.747635,37.6963804 613.797088,37.5329638 613.895757,37.4392117 C613.994662,37.3456958 614.173161,37.2982295 614.430078,37.2982295 L615.319513,37.2982295 C615.797788,37.2982295 616.177629,37.4120543 616.45833,37.6397041 C616.75528,37.8772722 616.90293,38.2114262 616.90293,38.6400406 C616.90293,39.0658212 616.768467,39.3957245 616.500011,39.6299865 C616.231085,39.8647208 615.863254,39.9820879 615.396989,39.9820879 L614.732443,39.9820879 L614.732443,40.655355 C614.732443,41.0792464 614.568544,41.2913102 614.240275,41.2913102 C613.912006,41.2913102 613.747635,41.078538 613.747635,40.6534658 Z M614.732443,39.1652409 L615.159382,39.1652409 C615.610105,39.1652409 615.835702,38.9900167 615.835702,38.6400406 C615.835702,38.2976214 615.610105,38.1261756 615.159382,38.1261756 L614.732443,38.1261756 L614.732443,39.1652409 Z M612.018216,38.840533 L610.232752,40.9937597 C610.066733,41.1916544 609.87693,41.2913102 609.663579,41.2913102 C609.3671,41.2913102 609.218272,41.1125438 609.218272,40.7564277 L609.218272,37.8871906 C609.218272,37.4628268 609.382407,37.2500546 609.710676,37.2500546 C610.038946,37.2500546 610.20308,37.4628268 610.20308,37.8881352 L610.20308,39.7376714 L612.023868,37.5421737 C612.185883,37.3471128 612.360144,37.2500546 612.545944,37.2500546 C612.850429,37.2500546 613.002789,37.4517277 613.002789,37.8548379 L613.002789,40.6534658 C613.002789,41.078538 612.838654,41.2913102 612.510385,41.2913102 C612.182351,41.2913102 612.018216,41.0792464 612.018216,40.6544104 L612.018216,38.840533 Z M605.555031,40.6534658 L605.555031,37.9304062 C605.555031,37.6963804 605.60519,37.5329638 605.703624,37.4392117 C605.802058,37.3456958 605.980557,37.2982295 606.237474,37.2982295 L607.126909,37.2982295 C607.605184,37.2982295 607.98479,37.4120543 608.265726,37.6397041 C608.562675,37.8772722 608.710326,38.2114262 608.710326,38.6400406 C608.710326,39.0658212 608.575863,39.3957245 608.307407,39.6299865 C608.038481,39.8647208 607.670649,39.9820879 607.204385,39.9820879 L606.540075,39.9820879 L606.540075,40.655355 C606.540075,41.0792464 606.37594,41.2913102 606.047671,41.2913102 C605.719401,41.2913102 605.555031,41.078538 605.555031,40.6534658 Z M606.540075,39.1652409 L606.966778,39.1652409 C607.417501,39.1652409 607.643097,38.9900167 607.643097,38.6400406 C607.643097,38.2976214 607.417501,38.1261756 606.966778,38.1261756 L606.540075,38.1261756 L606.540075,39.1652409 Z M602.010712,38.094059 L602.010712,40.6534658 C602.010712,41.078538 601.846341,41.2913102 601.518072,41.2913102 C601.189567,41.2913102 601.026375,41.078538 601.026375,40.6534658 L601.026375,37.93631 C601.026375,37.511474 601.2515,37.2982295 601.702223,37.2982295 L604.13363,37.2982295 C604.584588,37.2982295 604.810185,37.511474 604.810185,37.93631 L604.810185,40.6534658 C604.810185,41.078538 604.64605,41.2913102 604.317545,41.2913102 C603.989747,41.2913102 603.825612,41.078538 603.825612,40.6534658 L603.825612,38.094059 L602.010712,38.094059 Z M676.371015,16.8043192 C676.371015,17.1427239 676.132702,17.6124286 675.608507,17.8195332 L672.810918,18.9176364 C672.660913,18.9731319 672.417183,18.9884817 672.094095,19.0265021 C671.17593,19.1327701 670.63996,17.8273262 672.046291,17.2922076 L674.86578,16.2125243 C675.46957,15.9003324 676.371015,16.1369559 676.371015,16.8043192 Z M670.234687,25.4783892 C670.2799,24.3257352 670.630305,23.424346 671.282134,22.777764 C671.93726,22.1276397 672.788547,21.8154478 673.839056,21.8218239 C674.867664,21.8333953 675.696815,22.1741615 676.302253,22.8453032 C676.906043,23.5112497 677.212412,24.3885514 677.236431,25.4783892 L670.234687,25.4783892 Z M678.642291,23.1530083 C678.169197,22.2235171 677.511481,21.48767 676.6682,20.9544405 C675.795249,20.3869692 674.819389,20.1172845 673.746038,20.1224798 C672.629593,20.1323982 671.650672,20.4197942 670.80645,20.9919886 C667.73334,23.0849967 667.283795,27.5048027 669.437562,30.29304 C670.468997,31.6343789 671.985535,32.2989084 673.983645,32.2989084 C674.968924,32.2989084 675.893447,32.1210865 676.755095,31.7737081 C677.639115,31.4173559 678.299892,31.0069251 678.740489,30.5518618 C678.947718,30.3353111 679.049213,30.0972707 679.048977,29.8398659 C679.048977,29.2865636 678.802187,29.0062521 678.308134,29.0062521 C678.096902,29.0062521 677.835511,29.1328292 677.519958,29.3711057 C676.441897,30.1839382 675.301667,30.5981474 674.102095,30.5981474 C673.392336,30.5981474 672.750633,30.4649581 672.171805,30.1983434 C670.907945,29.6117438 670.26271,28.5398535 670.234922,26.978894 L678.169197,26.9784217 C678.947718,26.9784217 679.334623,26.6589091 679.334623,26.0179947 C679.334388,25.0228535 679.104081,24.0673857 678.642291,23.1530083 Z M667.434978,21.9564301 L666.404956,21.9564301 L666.404956,31.3358838 C666.404956,31.9737282 666.032886,32.2989084 665.280504,32.2989084 C664.625143,32.2989084 664.299229,31.9621568 664.299229,31.2926681 L664.2997,21.9564301 L663.372351,21.9564301 C662.758906,21.9564301 662.417214,21.6806055 662.338797,21.1313178 C662.403791,20.5496774 662.74619,20.255433 663.372351,20.255433 L664.2997,20.2561414 L664.2997,17.0104792 C664.2997,16.4000283 664.644453,16.094921 665.325482,16.094921 C666.049841,16.094921 666.404721,16.4139613 666.404721,17.0593625 L666.404956,20.2561414 L667.33466,20.2561414 C667.990492,20.2561414 668.312875,20.5496774 668.312875,21.1313178 C668.31311,21.6810778 668.021106,21.9564301 667.434978,21.9564301 Z M661.389783,31.2886535 C661.389783,31.9264979 661.0382,32.246719 660.338332,32.246719 C659.654477,32.2471913 659.310665,31.9260256 659.310665,31.2886535 L659.311136,24.7023963 C659.311136,23.8831878 659.046919,23.2051977 658.506476,22.6759828 C657.9552,22.1385027 657.245677,21.8681096 656.368015,21.8681096 C655.223783,21.8683457 654.377677,22.3073508 653.828756,23.1756788 C653.545229,23.6191708 653.406527,24.1405926 653.406527,24.7470289 L653.406527,31.2886535 C653.406527,31.9888419 653.069074,32.3414156 652.403351,32.3414156 C652.090624,32.3416518 651.83983,32.2363283 651.631423,32.0353636 C651.431024,31.8348713 651.329058,31.5817172 651.329058,31.2886535 L651.329058,21.1783119 C651.329058,20.4734005 651.670279,20.1224798 652.357902,20.1224798 C653.05518,20.122716 653.406527,20.4734005 653.406527,21.1754781 L653.406527,21.6402236 L653.45174,21.6855647 C654.302556,20.6476801 655.456915,20.1224798 656.921882,20.1224798 C658.665194,20.122716 659.95331,20.8025953 660.770687,22.1496018 C661.178551,22.8325511 661.389312,23.671124 661.389312,24.6551661 L661.389783,31.2886535 Z M645.320599,22.3519834 C644.791223,21.9989373 644.195676,21.8218239 643.524066,21.8218239 L643.476733,21.8220601 C642.368529,21.8220601 641.514417,22.2473684 640.912511,23.0899559 C640.323322,23.9098729 640.026137,24.9484659 640.012714,26.2180148 C640.001882,26.9659057 640.127868,27.6781377 640.386904,28.3655739 C640.95066,29.8516734 641.94371,30.5981474 643.375709,30.5981474 C644.639334,30.5981474 645.574454,30.1445009 646.19826,29.2350826 C646.706912,28.4756203 646.963358,27.47552 646.963358,26.2180148 C646.963358,24.3861899 646.412082,23.0934982 645.320599,22.3519834 Z M648.971123,31.2926681 C648.971123,31.9621568 648.648976,32.2989084 647.993144,32.2989084 C647.338725,32.2989084 647.013517,31.9926203 647.013517,31.383114 L647.013517,30.5084099 L646.963358,30.5084099 C646.052493,31.6846791 644.944525,32.2800163 643.6371,32.2989084 C642.598601,32.3144944 641.622035,32.0670079 640.713996,31.5531429 C638.839045,30.4930601 637.90369,28.7320806 637.90369,26.2673704 C637.90369,23.6614418 638.874604,21.8333953 640.816668,20.8025953 C641.660419,20.3529634 642.512412,20.1224798 643.375709,20.1224798 C644.771678,20.122716 645.963479,20.6587792 646.963358,21.7335034 L647.013517,21.7339757 L647.013517,21.081726 C647.013517,20.8118052 647.107005,20.5791963 647.284563,20.3990129 C647.47154,20.2193018 647.703259,20.1224798 647.993144,20.1224798 C648.648976,20.122716 648.970652,20.4606484 648.970652,21.1313178 L648.971123,31.2926681 Z M634.86449,31.5817172 C633.99201,32.0599234 632.95304,32.2989084 631.738632,32.2989084 C630.862148,32.2989084 630.025932,32.1909873 629.231398,31.9699498 C628.460648,31.7597752 627.867926,31.5037873 627.437691,31.2036391 C627.123551,30.9745724 626.951645,30.6852872 626.936574,30.3301158 C626.922445,30.0708217 627.01193,29.8398659 627.189723,29.6500003 C627.3621,29.4620239 627.588874,29.3711057 627.870517,29.3711057 C628.020758,29.3711057 628.215977,29.4287266 628.46418,29.5463299 C629.5705,30.2486436 630.751469,30.5981474 632.004261,30.5981474 C633.208073,30.5981474 634.129063,30.0694048 634.755224,29.0173512 C635.035219,28.5398535 635.183811,28.030003 635.183811,27.4934675 C635.184047,26.4858103 634.596741,25.702969 633.425898,25.1496667 C632.916304,24.9097371 632.262826,24.6676821 631.475828,24.4064989 C631.045121,24.2726011 630.54895,24.1120183 629.991787,23.9223889 C629.425675,23.6713602 628.910429,23.3818388 628.460413,23.0580755 C628.056787,22.7643034 627.728753,22.3954352 627.48785,21.9564301 C627.238704,21.4952268 627.109893,20.9468837 627.105183,20.3017186 C627.095528,19.5032914 627.342319,18.7806687 627.842729,18.1270021 C628.880522,16.7752726 630.330417,16.104367 632.193122,16.104367 C633.574255,16.1048393 634.720843,16.382317 635.61334,16.9356193 C636.075366,17.2175838 636.310618,17.5696853 636.310618,17.9796438 C636.310618,18.5124009 635.979052,18.803103 635.326516,18.8477356 C635.013318,18.7825579 634.627826,18.645354 634.159677,18.4380133 C633.537048,18.162661 633.158149,17.997119 633.015208,17.9475272 C632.745575,17.8476352 632.421309,17.7999327 632.043117,17.7999327 C631.286731,17.8001688 630.660806,18.0127049 630.174289,18.4280949 C629.690598,18.8456102 629.396946,19.4128454 629.296628,20.1224798 C629.349613,21.031662 630.021223,21.7462555 631.303922,22.2693305 C632.006381,22.492021 633.049825,22.8479009 634.426484,23.3483053 C634.900284,23.5374624 635.356894,23.7738498 635.794901,24.0624266 C636.913701,24.7836324 637.47628,25.8640241 637.47628,27.3139925 C637.476516,29.1994238 636.603329,30.6201095 634.86449,31.5817172 Z M621.441242,30.3516055 C621.198219,30.1296234 620.913515,30.0162708 620.579358,30.0162708 C620.24944,30.0162708 619.963088,30.1296234 619.721949,30.3544393 C619.481987,30.5801999 619.359298,30.8439808 619.358827,31.1542835 C619.358827,31.4612801 619.484342,31.7264779 619.728778,31.9569614 C619.975333,32.179652 620.256505,32.2989084 620.579358,32.2989084 C620.908334,32.2989084 621.191154,32.1801243 621.433942,31.9569614 C621.673668,31.7276586 621.796121,31.4629331 621.796121,31.1542835 C621.796121,30.8439808 621.678378,30.5742961 621.441242,30.3516055 Z M620.228482,22.2768873 C619.755859,22.3928375 619.456084,22.485645 619.309611,22.5557819 C618.176917,23.14002 617.609157,24.1233536 617.609157,25.5260918 L617.609157,31.2926681 C617.609157,31.9621568 617.27759,32.2989084 616.606452,32.2989084 C615.894338,32.2989084 615.539223,31.9479877 615.539223,31.2470909 L615.539223,21.1754781 C615.539223,20.4977241 615.876676,20.1659316 616.563122,20.1659316 C617.260871,20.1661678 617.609157,20.4977241 617.609157,21.1754781 L617.609157,22.1781761 L617.658844,22.1781761 C617.971572,21.6605326 618.380378,21.1969678 618.893975,20.7742572 C619.407102,20.353908 619.937655,20.1373573 620.480925,20.1224798 C620.784939,20.1172845 621.064227,20.2103281 621.307721,20.4077505 C621.550508,20.6028114 621.673668,20.845811 621.673668,21.1313178 C621.673668,21.6628942 621.193509,22.0461676 620.228482,22.2768873 Z M610.08934,19.5498131 C609.091109,18.4748528 607.747889,17.9383173 606.064861,17.9383173 L603.078647,17.9385535 L603.078647,30.4649581 L606.359692,30.4649581 C607.583284,30.4649581 608.686071,30.0630288 609.662166,29.2558639 C610.945336,28.1988511 611.594575,26.4482622 611.594575,24.0095287 C611.594575,22.1217359 611.091574,20.639651 610.08934,19.5498131 Z M612.97194,28.2977985 C611.783907,30.8730274 609.662166,32.1617045 606.597534,32.1617045 L602.099255,32.1617045 C601.815257,32.1617045 601.568702,32.0837746 601.354644,31.9286233 C601.120334,31.7675682 601,31.5531429 601,31.2926681 L601.000471,17.28654 C601.000471,16.5898939 601.36948,16.2439324 602.099255,16.2439324 L606.408908,16.2441685 C607.880469,16.2441685 609.191427,16.5858793 610.33095,17.2659948 C611.474241,17.9475272 612.345779,18.9131495 612.956162,20.1723077 C613.5543,21.4005302 613.848895,22.7260469 613.839004,24.1481495 C613.827701,25.6838408 613.536874,27.069576 612.97194,28.2977985 Z"></path>
            </g>
        </g>
    </g>
</svg>